<?xml version="1.0" encoding="utf-8"?>
<svg viewBox="0 0 1261 564" fill="none" xmlns="http://www.w3.org/2000/svg">
  <defs>
    <radialGradient id="paint0_radial_101_273" cx="0" cy="0" r="1" gradientUnits="userSpaceOnUse" gradientTransform="translate(495.623 156.266) rotate(46.997) scale(331.913)">
      <stop offset="0.04" stop-color="#375A64"/>
      <stop offset="0.5468" stop-color="#347479"/>
      <stop offset="1" stop-color="#318B8B"/>
    </radialGradient>
    <radialGradient id="paint1_radial_101_273" cx="0" cy="0" r="1" gradientUnits="userSpaceOnUse" gradientTransform="translate(615.84 282.834) scale(175.23)">
      <stop stop-color="#828282"/>
      <stop offset="0.3" stop-color="#848484" stop-opacity="0.98"/>
      <stop offset="0.47" stop-color="#8B8B8B" stop-opacity="0.92"/>
      <stop offset="0.6" stop-color="#969697" stop-opacity="0.81"/>
      <stop offset="0.72" stop-color="#A6A6A7" stop-opacity="0.66"/>
      <stop offset="0.83" stop-color="#BBBCBD" stop-opacity="0.47"/>
      <stop offset="0.92" stop-color="#D4D5D7" stop-opacity="0.23"/>
      <stop offset="1" stop-color="#ECEEF0" stop-opacity="0"/>
    </radialGradient>
    <linearGradient id="paint2_linear_101_273" x1="507.857" y1="295.288" x2="728.435" y2="295.288" gradientUnits="userSpaceOnUse">
      <stop stop-color="white"/>
      <stop offset="1" stop-color="#D5D5D5"/>
    </linearGradient>
    <radialGradient id="paint3_radial_101_273" cx="0" cy="0" r="1" gradientUnits="userSpaceOnUse" gradientTransform="translate(814.799 92.1661) scale(65.1693)">
      <stop offset="0.04" stop-color="#D8D9DD"/>
      <stop offset="0.55" stop-color="#ECEEF0"/>
      <stop offset="1" stop-color="#F6F6F7"/>
    </radialGradient>
    <radialGradient id="paint4_radial_101_273" cx="0" cy="0" r="1" gradientUnits="userSpaceOnUse" gradientTransform="translate(821.738 498.405) scale(65.1693)">
      <stop offset="0.04" stop-color="#D8D9DD"/>
      <stop offset="0.55" stop-color="#ECEEF0"/>
      <stop offset="1" stop-color="#F6F6F7"/>
    </radialGradient>
    <radialGradient id="paint5_radial_101_273" cx="0" cy="0" r="1" gradientUnits="userSpaceOnUse" gradientTransform="translate(419.878 92.5173) rotate(-180) scale(65.4359)">
      <stop offset="0.04" stop-color="#D8D9DD"/>
      <stop offset="0.55" stop-color="#ECEEF0"/>
      <stop offset="1" stop-color="#F6F6F7"/>
    </radialGradient>
    <radialGradient id="paint6_radial_101_273" cx="0" cy="0" r="1" gradientUnits="userSpaceOnUse" gradientTransform="translate(409.262 498.405) rotate(180) scale(65.1693)">
      <stop offset="0.04" stop-color="#D8D9DD"/>
      <stop offset="0.55" stop-color="#ECEEF0"/>
      <stop offset="1" stop-color="#F6F6F7"/>
    </radialGradient>
  </defs>
  <path d="M762.516 293.125C762.566 257.401 749.498 222.903 725.793 196.177C699.369 168.3 663.042 151.932 624.654 150.609C586.266 149.286 548.897 163.112 520.616 189.104C492.335 215.096 475.41 251.167 473.496 289.53C471.581 327.893 484.831 365.47 510.384 394.148C530.563 415.291 556.612 429.905 585.174 436.107C613.735 442.308 643.5 439.813 670.63 428.943C697.76 418.072 721.013 399.325 737.39 375.117C753.767 350.91 762.519 322.352 762.516 293.125Z" fill="url(#paint0_radial_101_273)"/>
  <g style="mix-blend-mode:multiply">
    <path d="M535.839 370.753L604.017 438.923C608.03 439.254 612.079 439.433 616.208 439.433C635.421 439.433 654.446 435.649 672.197 428.296C689.948 420.944 706.077 410.167 719.663 396.581C733.249 382.995 744.026 366.866 751.379 349.115C758.732 331.364 762.516 312.338 762.516 293.125C762.516 290.808 762.459 288.503 762.346 286.21L712.717 236.581L535.839 370.753Z" fill="url(#paint1_radial_101_273)"/>
  </g>
  <path d="M728.364 293.609C728.364 315.704 721.812 337.304 709.536 355.675C697.26 374.047 679.813 388.366 659.399 396.822C638.985 405.278 616.523 407.49 594.851 403.179C573.18 398.869 553.274 388.229 537.65 372.605C522.026 356.981 511.386 337.075 507.076 315.404C502.765 293.732 504.977 271.27 513.433 250.856C521.889 230.442 536.208 212.995 554.58 200.719C572.951 188.443 594.551 181.891 616.646 181.891C631.317 181.891 645.845 184.781 659.399 190.395C672.953 196.009 685.269 204.238 695.643 214.612C706.017 224.986 714.246 237.302 719.86 250.856C725.474 264.41 728.364 278.938 728.364 293.609Z" fill="white"/>
  <path d="M728.435 293.73C728.479 266.443 718.496 240.091 700.382 219.684C683.06 200.108 659.422 187.227 633.583 183.281C607.743 179.335 581.338 184.574 558.962 198.087C536.587 211.601 519.659 232.532 511.124 257.239C502.588 281.945 502.987 308.862 512.249 333.306C521.512 357.749 539.052 378.17 561.818 391.015C584.583 403.86 611.132 408.316 636.844 403.607C662.555 398.898 685.802 385.322 702.537 365.243C719.272 345.163 728.436 319.851 728.435 293.712V293.73Z" fill="url(#paint2_linear_101_273)"/>
  <path d="M728.364 293.609C728.408 266.322 718.425 239.971 700.311 219.564C682.989 199.988 659.351 187.106 633.512 183.16C607.672 179.214 581.267 184.454 558.891 197.967C536.516 211.48 519.588 232.412 511.053 257.118C502.517 281.825 502.916 308.742 512.178 333.185C521.441 357.628 538.981 378.049 561.747 390.895C584.512 403.74 611.061 408.196 636.773 403.487C662.484 398.778 685.731 385.202 702.466 365.122C719.201 345.042 728.365 319.73 728.364 293.591V293.609Z" stroke="white" stroke-width="0.152265" stroke-miterlimit="10"/>
  <path d="M717.069 244.642C728.271 269.849 729.752 298.308 721.228 324.541C712.703 350.775 694.776 372.927 670.897 386.735C647.018 400.542 618.876 405.028 591.887 399.33C564.899 393.631 540.973 378.15 524.714 355.867C528.004 361.126 531.722 366.105 535.83 370.753C554.241 390.018 578.931 402.069 605.446 404.732C631.961 407.394 658.554 400.492 680.428 385.272C702.302 370.052 718.015 347.515 724.734 321.728C731.453 295.941 728.735 268.601 717.069 244.642Z" fill="#ECEEF0"/>
  <path d="M1223.33 93.6318V93.6323C1223.35 106.881 1220.01 118.851 1214.63 127.493C1209.24 136.141 1201.86 141.391 1193.78 141.391H799.686C791.624 141.391 784.248 136.142 778.862 127.493C773.481 118.851 770.137 106.881 770.137 93.6318C770.137 80.3869 773.477 68.4192 778.855 59.7787C784.239 51.1311 791.614 45.8818 799.686 45.8818H1193.78C1201.85 45.8818 1209.22 51.131 1214.61 59.7788C1219.99 68.4193 1223.33 80.387 1223.33 93.6318Z" fill="white" stroke="#318B8B"/>
  <path d="M860.874 138.248C886.324 112.798 886.324 71.535 860.874 46.0849C835.423 20.6347 794.161 20.6347 768.71 46.0849C743.26 71.5351 743.26 112.798 768.71 138.248C794.161 163.698 835.423 163.698 860.874 138.248Z" fill="url(#paint3_radial_101_273)"/>
  <path d="M867.641 93.4432C867.641 104.12 864.475 114.558 858.543 123.435C852.611 132.313 844.18 139.232 834.315 143.317C824.451 147.403 813.596 148.471 803.124 146.388C792.653 144.304 783.034 139.162 775.485 131.611C767.935 124.061 762.795 114.441 760.713 103.969C758.631 93.497 759.701 82.6427 763.788 72.7789C767.876 62.9151 774.796 54.4848 783.675 48.5542C792.553 42.6237 802.991 39.4592 813.668 39.4609C827.983 39.4633 841.712 45.1518 851.833 55.2752C861.955 65.3985 867.641 79.1278 867.641 93.4432Z" fill="white"/>
  <path d="M867.618 93.5194C867.641 80.3365 862.818 67.6048 854.066 57.7462C844.307 47.5023 830.915 41.4995 816.774 41.0298C802.633 40.5601 788.873 45.661 778.455 55.2348C768.037 64.8086 761.795 78.0898 761.071 92.2201C760.347 106.35 765.199 120.2 774.584 130.788C782.028 138.591 791.639 143.985 802.177 146.274C812.715 148.564 823.698 147.644 833.708 143.633C843.719 139.623 852.298 132.705 858.341 123.773C864.383 114.841 867.611 104.303 867.609 93.5194H867.618Z" fill="#318B8B"/>
  <path d="M1230.75 547.623H806.655C798.596 547.623 791.223 542.377 785.838 533.73C780.458 525.091 777.114 513.123 777.114 499.874C777.114 486.629 780.454 474.661 785.832 466.02C791.214 457.373 798.587 452.124 806.655 452.124H1230.75C1238.81 452.124 1246.19 457.373 1251.58 466.02C1256.96 474.661 1260.3 486.629 1260.3 499.874C1260.3 513.123 1256.96 525.091 1251.58 533.73C1246.19 542.377 1238.81 547.623 1230.75 547.623Z" fill="white" stroke="#318B8B"/>
  <path d="M821.738 563.574C857.73 563.574 886.907 534.397 886.907 498.405C886.907 462.413 857.73 433.235 821.738 433.235C785.746 433.235 756.569 462.413 756.569 498.405C756.569 534.397 785.746 563.574 821.738 563.574Z" fill="url(#paint4_radial_101_273)"/>
  <path d="M874.592 499.685C874.592 510.362 871.426 520.799 865.494 529.676C859.562 538.554 851.131 545.473 841.268 549.559C831.404 553.644 820.55 554.713 810.078 552.63C799.606 550.548 789.988 545.406 782.438 537.857C774.889 530.307 769.747 520.688 767.664 510.217C765.581 499.745 766.65 488.891 770.736 479.027C774.822 469.163 781.741 460.732 790.618 454.801C799.496 448.869 809.933 445.703 820.609 445.703C834.926 445.703 848.657 451.391 858.781 461.514C868.904 471.638 874.592 485.368 874.592 499.685Z" fill="white"/>
  <path d="M874.947 499.982C874.948 489.307 871.785 478.872 865.855 469.995C859.926 461.118 851.498 454.199 841.636 450.112C831.775 446.025 820.923 444.955 810.452 447.035C799.982 449.116 790.364 454.255 782.815 461.802C775.265 469.349 770.123 478.965 768.039 489.435C765.955 499.904 767.022 510.757 771.105 520.62C775.189 530.483 782.105 538.913 790.98 544.846C799.855 550.778 810.289 553.945 820.964 553.947C828.058 553.968 835.086 552.587 841.644 549.883C848.201 547.178 854.16 543.204 859.177 538.189C864.193 533.174 868.169 527.217 870.876 520.66C873.582 514.103 874.966 507.076 874.947 499.982Z" fill="#318B8B"/>
  <path d="M874.592 499.685C874.593 489.011 871.43 478.575 865.5 469.698C859.571 460.821 851.143 453.902 841.281 449.815C831.42 445.728 820.568 444.658 810.097 446.738C799.627 448.819 790.009 453.958 782.46 461.505C774.91 469.052 769.768 478.669 767.684 489.138C765.6 499.607 766.667 510.46 770.75 520.323C774.834 530.186 781.75 538.617 790.625 544.549C799.5 550.481 809.934 553.648 820.609 553.65C827.703 553.671 834.731 552.29 841.289 549.586C847.846 546.882 853.805 542.908 858.822 537.893C863.838 532.877 867.814 526.92 870.521 520.363C873.227 513.806 874.611 506.779 874.592 499.685V499.685Z" stroke="white" stroke-width="0.152265" stroke-miterlimit="10"/>
  <path d="M869.137 476.013C874.531 488.19 875.234 501.932 871.111 514.596C866.987 527.261 858.328 537.954 846.798 544.621C835.268 551.288 821.68 553.457 808.647 550.713C795.614 547.968 784.055 540.504 776.193 529.753C783.817 541.042 795.439 549.019 808.714 552.075C821.989 555.131 835.93 553.038 847.722 546.22C859.515 539.401 868.283 528.364 872.258 515.334C876.232 502.304 875.117 488.252 869.137 476.013Z" fill="#D8D9DD"/>
  <path d="M431.287 141.391H37.19C29.1271 141.391 21.7513 136.142 16.3657 127.493C10.9846 118.851 7.64014 106.881 7.64014 93.6318C7.64014 80.387 10.9846 68.4193 16.3657 59.7788C21.7513 51.131 29.1271 45.8818 37.19 45.8818H431.287C439.359 45.8818 446.734 51.1311 452.118 59.7787C457.496 68.4192 460.837 80.3869 460.837 93.6318C460.837 106.881 457.492 118.851 452.111 127.493C446.725 136.142 439.35 141.391 431.287 141.391Z" fill="white" stroke="#318B8B"/>
  <path d="M462.284 138.245C487.734 112.795 487.734 71.5317 462.284 46.0815C436.834 20.6313 395.571 20.6313 370.12 46.0815C344.67 71.5317 344.67 112.795 370.12 138.245C395.571 163.695 436.833 163.695 462.284 138.245Z" fill="url(#paint5_radial_101_273)"/>
  <path d="M363.359 93.4432C363.359 104.12 366.525 114.558 372.457 123.435C378.389 132.313 386.821 139.232 396.685 143.317C406.55 147.403 417.404 148.471 427.876 146.388C438.348 144.304 447.966 139.162 455.515 131.611C463.065 124.061 468.205 114.441 470.287 103.969C472.369 93.497 471.299 82.6427 467.212 72.7789C463.124 62.9151 456.204 54.4848 447.325 48.5542C438.447 42.6237 428.009 39.4592 417.332 39.4609C403.017 39.4633 389.288 45.1518 379.167 55.2752C369.045 65.3985 363.359 79.1278 363.359 93.4432Z" fill="white"/>
  <path d="M363 93.3953C362.982 80.21 367.811 67.4781 376.57 57.6221C386.341 47.4303 399.718 41.4728 413.83 41.027C427.943 40.5811 441.668 45.6823 452.064 55.2369C462.46 64.7915 468.699 78.0389 469.442 92.1389C470.186 106.239 465.376 120.069 456.043 130.664C448.6 138.473 438.987 143.873 428.446 146.166C417.905 148.459 406.918 147.54 396.904 143.529C386.89 139.518 378.307 132.598 372.264 123.661C366.221 114.725 362.994 104.183 363 93.3953Z" fill="#318B8B"/>
  <path d="M363.359 93.4437C363.34 80.2584 368.17 67.5264 376.928 57.6704C386.7 47.4786 400.076 41.5212 414.189 41.0753C428.301 40.6294 442.027 45.7306 452.423 55.2852C462.819 64.8398 469.057 78.0872 469.801 92.1872C470.545 106.287 465.734 120.117 456.401 130.713C448.958 138.522 439.346 143.921 428.805 146.214C418.264 148.507 407.277 147.589 397.263 143.577C387.248 139.566 378.666 132.646 372.623 123.71C366.579 114.774 363.353 104.231 363.359 93.4437V93.4437Z" stroke="white" stroke-width="0.152265" stroke-miterlimit="10"/>
  <path d="M368.813 69.771C363.405 81.949 362.693 95.6968 366.812 108.369C370.931 121.041 379.592 131.742 391.127 138.412C402.662 145.082 416.256 147.25 429.294 144.5C442.332 141.749 453.891 134.273 461.749 123.511C460.161 126.046 458.363 128.443 456.375 130.677C447.476 139.966 435.553 145.773 422.753 147.052C409.954 148.331 397.118 144.998 386.557 137.653C375.996 130.308 368.405 119.434 365.151 106.989C361.896 94.5439 363.192 81.3456 368.804 69.771H368.813Z" fill="#D8D9DD"/>
  <path d="M401.696 93.032C401.696 89.3413 402.357 86.4507 403.68 84.36C405.024 82.2693 407.243 81.224 410.336 81.224C413.429 81.224 415.637 82.2693 416.96 84.36C418.304 86.4507 418.976 89.3413 418.976 93.032C418.976 96.744 418.304 99.656 416.96 101.768C415.637 103.88 413.429 104.936 410.336 104.936C407.243 104.936 405.024 103.88 403.68 101.768C402.357 99.656 401.696 96.744 401.696 93.032ZM414.56 93.032C414.56 91.4533 414.453 90.1307 414.24 89.064C414.048 87.976 413.643 87.0907 413.024 86.408C412.427 85.7253 411.531 85.384 410.336 85.384C409.141 85.384 408.235 85.7253 407.616 86.408C407.019 87.0907 406.613 87.976 406.4 89.064C406.208 90.1307 406.112 91.4533 406.112 93.032C406.112 94.6533 406.208 96.0187 406.4 97.128C406.592 98.216 406.997 99.1013 407.616 99.784C408.235 100.445 409.141 100.776 410.336 100.776C411.531 100.776 412.437 100.445 413.056 99.784C413.675 99.1013 414.08 98.216 414.272 97.128C414.464 96.0187 414.56 94.6533 414.56 93.032ZM421.84 85.8V81.672H429.552V105H424.944V85.8H421.84Z" fill="white"/>
  <path d="M795.696 93.032C795.696 89.3413 796.357 86.4507 797.68 84.36C799.024 82.2693 801.243 81.224 804.336 81.224C807.429 81.224 809.637 82.2693 810.96 84.36C812.304 86.4507 812.976 89.3413 812.976 93.032C812.976 96.744 812.304 99.656 810.96 101.768C809.637 103.88 807.429 104.936 804.336 104.936C801.243 104.936 799.024 103.88 797.68 101.768C796.357 99.656 795.696 96.744 795.696 93.032ZM808.56 93.032C808.56 91.4533 808.453 90.1307 808.24 89.064C808.048 87.976 807.643 87.0907 807.024 86.408C806.427 85.7253 805.531 85.384 804.336 85.384C803.141 85.384 802.235 85.7253 801.616 86.408C801.019 87.0907 800.613 87.976 800.4 89.064C800.208 90.1307 800.112 91.4533 800.112 93.032C800.112 94.6533 800.208 96.0187 800.4 97.128C800.592 98.216 800.997 99.1013 801.616 99.784C802.235 100.445 803.141 100.776 804.336 100.776C805.531 100.776 806.437 100.445 807.056 99.784C807.675 99.1013 808.08 98.216 808.272 97.128C808.464 96.0187 808.56 94.6533 808.56 93.032ZM817.792 99.944C819.84 98.2373 821.472 96.8187 822.688 95.688C823.904 94.536 824.917 93.3413 825.728 92.104C826.538 90.8667 826.944 89.6507 826.944 88.456C826.944 87.368 826.688 86.5147 826.176 85.896C825.664 85.2773 824.874 84.968 823.808 84.968C822.741 84.968 821.92 85.3307 821.344 86.056C820.768 86.76 820.469 87.7307 820.448 88.968H816.096C816.181 86.408 816.938 84.4667 818.368 83.144C819.818 81.8213 821.653 81.16 823.872 81.16C826.304 81.16 828.17 81.8107 829.472 83.112C830.773 84.392 831.424 86.088 831.424 88.2C831.424 89.864 830.976 91.4533 830.08 92.968C829.184 94.4827 828.16 95.8053 827.008 96.936C825.856 98.0453 824.352 99.3893 822.496 100.968H831.936V104.68H816.128V101.352L817.792 99.944Z" fill="white"/>
  <path d="M424.336 547.623H30.2396C22.1811 547.623 14.8076 542.377 9.4231 533.73C4.04315 525.091 0.698669 513.123 0.698669 499.874C0.698669 486.629 4.04313 474.661 9.42311 466.02C14.8077 457.373 22.1812 452.124 30.2396 452.124H424.336C432.404 452.124 439.777 457.373 445.159 466.02C450.537 474.661 453.877 486.629 453.877 499.874C453.877 513.123 450.533 525.091 445.153 533.73C439.768 542.377 432.395 547.623 424.336 547.623Z" fill="white" stroke="#318B8B"/>
  <path d="M409.253 563.574C445.245 563.574 474.422 534.397 474.422 498.405C474.422 462.413 445.245 433.235 409.253 433.235C373.261 433.235 344.084 462.413 344.084 498.405C344.084 534.397 373.261 563.574 409.253 563.574Z" fill="url(#paint6_radial_101_273)"/>
  <path d="M356.408 499.685C356.408 510.362 359.574 520.799 365.506 529.676C371.438 538.554 379.868 545.473 389.732 549.559C399.596 553.644 410.45 554.713 420.922 552.63C431.394 550.548 441.012 545.406 448.562 537.857C456.111 530.307 461.253 520.688 463.336 510.217C465.419 499.745 464.35 488.891 460.264 479.027C456.178 469.163 449.259 460.732 440.382 454.801C431.504 448.869 421.067 445.703 410.391 445.703C396.074 445.703 382.343 451.391 372.219 461.514C362.096 471.638 356.408 485.368 356.408 499.685Z" fill="white"/>
  <path d="M356 499.982C355.998 489.307 359.162 478.872 365.091 469.995C371.021 461.118 379.449 454.199 389.311 450.112C399.172 446.025 410.024 444.955 420.494 447.035C430.965 449.116 440.583 454.255 448.132 461.802C455.682 469.349 460.824 478.965 462.908 489.435C464.992 499.904 463.925 510.757 459.842 520.62C455.758 530.483 448.842 538.913 439.967 544.846C431.092 550.778 420.657 553.945 409.982 553.947C402.889 553.968 395.861 552.587 389.303 549.883C382.745 547.178 376.787 543.204 371.77 538.189C366.753 533.174 362.778 527.217 360.071 520.66C357.365 514.103 355.981 507.076 356 499.982Z" fill="#318B8B"/>
  <path d="M356.408 499.685C356.407 489.011 359.57 478.575 365.5 469.698C371.429 460.821 379.857 453.902 389.719 449.815C399.58 445.728 410.432 444.658 420.903 446.738C431.373 448.819 440.991 453.958 448.54 461.505C456.09 469.052 461.232 478.669 463.316 489.138C465.401 499.607 464.333 510.46 460.25 520.323C456.166 530.186 449.25 538.617 440.375 544.549C431.5 550.481 421.066 553.648 410.391 553.65C403.297 553.671 396.269 552.29 389.712 549.586C383.154 546.882 377.195 542.908 372.178 537.893C367.162 532.877 363.186 526.92 360.479 520.363C357.773 513.806 356.389 506.779 356.408 499.685V499.685Z" stroke="white" stroke-width="0.152265" stroke-miterlimit="10"/>
  <path d="M361.863 476.013C356.469 488.19 355.766 501.932 359.889 514.596C364.013 527.261 372.672 537.954 384.202 544.621C395.732 551.288 409.32 553.457 422.353 550.713C435.386 547.968 446.945 540.504 454.807 529.753C447.183 541.042 435.561 549.019 422.286 552.075C409.011 555.131 395.07 553.038 383.278 546.22C371.485 539.401 362.717 528.364 358.742 515.334C354.768 502.304 355.883 488.252 361.863 476.013Z" fill="#D8D9DD"/>
  <path d="M391.696 499.032C391.696 495.341 392.357 492.451 393.68 490.36C395.024 488.269 397.243 487.224 400.336 487.224C403.429 487.224 405.637 488.269 406.96 490.36C408.304 492.451 408.976 495.341 408.976 499.032C408.976 502.744 408.304 505.656 406.96 507.768C405.637 509.88 403.429 510.936 400.336 510.936C397.243 510.936 395.024 509.88 393.68 507.768C392.357 505.656 391.696 502.744 391.696 499.032ZM404.56 499.032C404.56 497.453 404.453 496.131 404.24 495.064C404.048 493.976 403.643 493.091 403.024 492.408C402.427 491.725 401.531 491.384 400.336 491.384C399.141 491.384 398.235 491.725 397.616 492.408C397.019 493.091 396.613 493.976 396.4 495.064C396.208 496.131 396.112 497.453 396.112 499.032C396.112 500.653 396.208 502.019 396.4 503.128C396.592 504.216 396.997 505.101 397.616 505.784C398.235 506.445 399.141 506.776 400.336 506.776C401.531 506.776 402.437 506.445 403.056 505.784C403.675 505.101 404.08 504.216 404.272 503.128C404.464 502.019 404.56 500.653 404.56 499.032ZM412.448 493.816C412.554 491.683 413.301 490.04 414.688 488.888C416.096 487.715 417.941 487.128 420.224 487.128C421.781 487.128 423.114 487.405 424.224 487.96C425.333 488.493 426.165 489.229 426.72 490.168C427.296 491.085 427.583 492.131 427.583 493.304C427.583 494.648 427.232 495.789 426.528 496.728C425.845 497.645 425.024 498.264 424.064 498.584V498.712C425.301 499.096 426.261 499.779 426.944 500.76C427.648 501.741 428 503 428 504.536C428 505.816 427.701 506.957 427.104 507.96C426.528 508.963 425.664 509.752 424.512 510.328C423.381 510.883 422.016 511.16 420.416 511.16C418.005 511.16 416.042 510.552 414.528 509.336C413.013 508.12 412.213 506.328 412.128 503.96H416.48C416.522 505.005 416.874 505.848 417.536 506.488C418.218 507.107 419.146 507.416 420.32 507.416C421.408 507.416 422.24 507.117 422.816 506.52C423.413 505.901 423.712 505.112 423.712 504.152C423.712 502.872 423.306 501.955 422.496 501.4C421.685 500.845 420.426 500.568 418.72 500.568H417.792V496.888H418.72C421.749 496.888 423.264 495.875 423.264 493.848C423.264 492.931 422.986 492.216 422.432 491.704C421.898 491.192 421.12 490.936 420.095 490.936C419.093 490.936 418.314 491.213 417.76 491.768C417.226 492.301 416.917 492.984 416.832 493.816H412.448Z" fill="white"/>
  <path d="M801.696 499.032C801.696 495.341 802.357 492.451 803.68 490.36C805.024 488.269 807.243 487.224 810.336 487.224C813.429 487.224 815.637 488.269 816.96 490.36C818.304 492.451 818.976 495.341 818.976 499.032C818.976 502.744 818.304 505.656 816.96 507.768C815.637 509.88 813.429 510.936 810.336 510.936C807.243 510.936 805.024 509.88 803.68 507.768C802.357 505.656 801.696 502.744 801.696 499.032ZM814.56 499.032C814.56 497.453 814.453 496.131 814.24 495.064C814.048 493.976 813.643 493.091 813.024 492.408C812.427 491.725 811.531 491.384 810.336 491.384C809.141 491.384 808.235 491.725 807.616 492.408C807.019 493.091 806.613 493.976 806.4 495.064C806.208 496.131 806.112 497.453 806.112 499.032C806.112 500.653 806.208 502.019 806.4 503.128C806.592 504.216 806.997 505.101 807.616 505.784C808.235 506.445 809.141 506.776 810.336 506.776C811.531 506.776 812.437 506.445 813.056 505.784C813.675 505.101 814.08 504.216 814.272 503.128C814.464 502.019 814.56 500.653 814.56 499.032ZM822.192 506.456V502.936L832.656 487.96H837.872V502.552H840.688V506.456H837.872V511H833.392V506.456H822.192ZM833.68 492.76L827.12 502.552H833.68V492.76Z" fill="white"/>
</svg>