<svg width="70" height="24" viewBox="0 0 70 24" fill="none" xmlns="http://www.w3.org/2000/svg">
<path d="M69.0607 13.0607C69.6464 12.4749 69.6464 11.5251 69.0607 10.9393L59.5147 1.3934C58.9289 0.807611 57.9792 0.807611 57.3934 1.3934C56.8076 1.97919 56.8076 2.92893 57.3934 3.51472L65.8787 12L57.3934 20.4853C56.8076 21.0711 56.8076 22.0208 57.3934 22.6066C57.9792 23.1924 58.9289 23.1924 59.5147 22.6066L69.0607 13.0607ZM0 13.5H68V10.5H0V13.5Z" fill="#318B8B"/>
</svg>
