<svg width="100%" height="153" viewBox="0 0 142 153" fill="none" xmlns="http://www.w3.org/2000/svg">
<path d="M140.5 153V110C140.5 93.9837 127.516 81 111.5 81H30.5C14.4837 81 1.5 68.0163 1.5 52V0" stroke="#318B8B" stroke-width="2.5"/>
</svg>
