<svg width="100%" height="47" viewBox="0 0 436 47" fill="none" xmlns="http://www.w3.org/2000/svg">
<path d="M6.5 5.5L47 46H435.5" stroke="white"/>
<circle r="5" transform="matrix(1 0 0 -1 5 5.5)" fill="white"/>
</svg>
