<?xml version="1.0" encoding="utf-8"?>
<svg viewBox="-77.561 -32.518 155.285 92.653" fill="none" xmlns="http://www.w3.org/2000/svg">
  <path d="M4.6554 2.32775C4.6554 2.78869 4.51855 3.23925 4.26219 3.62233C4.00583 4.0054 3.64149 4.30373 3.21538 4.47951C2.78927 4.65529 2.32057 4.7006 1.86868 4.60971C1.41679 4.51881 1.00206 4.29579 0.677063 3.96892C0.352063 3.64205 0.131425 3.22605 0.0431173 2.77365C-0.0451901 2.32124 0.00280856 1.85281 0.181029 1.42772C0.359249 1.00263 0.659662 0.64001 1.0442 0.385845C1.42873 0.131679 1.88008 -0.00259593 2.34101 3.80205e-05C2.64607 3.29826e-05 2.94811 0.0603453 3.22977 0.177486C3.51144 0.294627 3.76718 0.466289 3.98227 0.682613C4.19735 0.898936 4.36755 1.15566 4.48307 1.43799C4.5986 1.72032 4.65716 2.0227 4.6554 2.32775Z" style="fill: rgb(255, 255, 255);"/>
  <path d="M4.6554 11.0401C4.6554 11.5011 4.51855 11.9517 4.26219 12.3347C4.00583 12.7178 3.64149 13.0161 3.21538 13.1919C2.78927 13.3677 2.32057 13.413 1.86868 13.3221C1.41679 13.2312 1.00206 13.0082 0.677063 12.6813C0.352063 12.3545 0.131425 11.9385 0.0431173 11.4861C-0.0451901 11.0336 0.00280856 10.5652 0.181029 10.1401C0.359249 9.71503 0.659662 9.35241 1.0442 9.09825C1.42873 8.84408 1.88008 8.70981 2.34101 8.71244C2.64607 8.71244 2.94811 8.77273 3.22977 8.88987C3.51144 9.00701 3.76718 9.17869 3.98227 9.39502C4.19735 9.61134 4.36755 9.86804 4.48307 10.1504C4.5986 10.4327 4.65716 10.7351 4.6554 11.0401Z" style="fill: rgb(255, 255, 255);"/>
  <path d="M4.6554 19.6725C4.6554 20.1334 4.51855 20.584 4.26219 20.967C4.00583 21.3501 3.64149 21.6485 3.21538 21.8242C2.78927 22 2.32057 22.0453 1.86868 21.9544C1.41679 21.8635 1.00206 21.6405 0.677063 21.3136C0.352063 20.9868 0.131425 20.5708 0.0431173 20.1184C-0.0451901 19.666 0.00280856 19.1975 0.181029 18.7724C0.359249 18.3473 0.659662 17.9847 1.0442 17.7306C1.42873 17.4764 1.88008 17.3421 2.34101 17.3448C2.64607 17.3448 2.94811 17.4051 3.22977 17.5222C3.51144 17.6393 3.76718 17.811 3.98227 18.0273C4.19735 18.2436 4.36755 18.5004 4.48307 18.7827C4.5986 19.065 4.65716 19.3674 4.6554 19.6725Z" style="fill: rgb(255, 255, 255);"/>
  <path d="M 2.359 53.85 C 9.262 53.85 14.859 48.253 14.859 41.35 C 14.859 34.446 9.262 28.85 2.359 28.85 C -4.545 28.85 -10.141 34.446 -10.141 41.35 C -10.141 48.253 -4.545 53.85 2.359 53.85 Z" stroke-width="6" stroke-miterlimit="10" stroke-linecap="round" style="fill: rgb(210, 59, 109); paint-order: fill; stroke: rgb(255, 255, 255);"/>
  <path d="M -2.524 4.947 L 15.555 33.117 L -20.603 33.117 L -2.524 4.947 Z" style="stroke-dashoffset: 3px; vector-effect: non-scaling-stroke; paint-order: fill; stroke-width: 0px; stroke-miterlimit: 22; stroke: rgb(255, 255, 255); fill: rgb(255, 255, 255);" transform="matrix(-1, 0, 0, -1, 0, 0)"/>
  <path d="M -238.966 43.921 C -174.716 43.921 -184.224 -13.696 -119.173 -13.696 C -57.775 -13.696 -59.518 44.038 2.187 44.038 C 64.834 44.038 61.476 -13.696 123.546 -13.696 C 186.595 -13.696 182.883 44.038 244.906 44.038" stroke-width="6" stroke-miterlimit="10" stroke-linecap="round" style="stroke: rgb(176, 82, 82);"/>
</svg>