<svg width="100%" height="75" viewBox="0 0 225 75" fill="none" xmlns="http://www.w3.org/2000/svg">
<g clip-path="url(#clip0_101_126)">
<path d="M207.082 -0.000244531H17.9277C17.2382 -0.000244531 16.557 -0.000244531 15.8693 0.00350547C15.2937 0.00725547 14.7226 0.0181492 14.1415 0.027318C12.8789 0.0421339 11.6193 0.152898 10.3736 0.358649C9.12967 0.568879 7.9247 0.965222 6.79945 1.53427C5.67557 2.10814 4.64866 2.85382 3.75596 3.74426C2.85857 4.6322 2.11053 5.65854 1.54059 6.78381C0.969088 7.90683 0.572804 9.11027 0.365429 10.3525C0.156082 11.5932 0.043431 12.8482 0.028486 14.1063C0.0110371 14.6812 0.00919449 15.2579 0 15.8329V59.1721C0.00919449 59.7543 0.0110371 60.3183 0.028486 60.9007C0.0434356 62.1587 0.156087 63.4136 0.365429 64.6543C0.572232 65.8972 0.968539 67.1014 1.54059 68.2248C2.11027 69.3464 2.85842 70.3686 3.75596 71.2516C4.64528 72.146 5.67285 72.8922 6.79945 73.4617C7.92469 74.0323 9.12953 74.431 10.3736 74.6444C11.6195 74.8485 12.879 74.9594 14.1415 74.9759C14.7226 74.9887 15.2937 74.996 15.8693 74.996C16.557 74.9998 17.2383 74.9998 17.9277 74.9998H207.082C207.758 74.9998 208.445 74.9998 209.121 74.996C209.694 74.996 210.281 74.9887 210.854 74.9759C212.114 74.9602 213.371 74.8494 214.615 74.6444C215.863 74.4295 217.072 74.0309 218.202 73.4617C219.328 72.8919 220.355 72.1457 221.243 71.2516C222.138 70.3652 222.888 69.3437 223.465 68.2248C224.033 67.1005 224.425 65.8965 224.629 64.6543C224.839 63.4134 224.955 62.1588 224.978 60.9007C224.985 60.3183 224.985 59.7543 224.985 59.1721C225 58.4909 225 57.8135 225 57.1213V17.88C225 17.1934 225 16.5122 224.985 15.8329C224.985 15.2579 224.985 14.6812 224.978 14.1062C224.955 12.848 224.839 11.5933 224.629 10.3525C224.425 9.11091 224.032 7.90757 223.465 6.78373C222.304 4.52825 220.464 2.6923 218.202 1.53411C217.072 0.966444 215.863 0.570206 214.615 0.35848C213.371 0.151823 212.114 0.04102 210.854 0.0270555C210.281 0.0179055 209.694 0.00691797 209.121 0.00326172C208.445 -0.000488281 207.758 -0.000488281 207.082 -0.000488281V-0.000244531Z" fill="#35676E"/>
<path d="M15.8786 73.3591C15.3057 73.3591 14.7467 73.3518 14.1783 73.3391C13.0009 73.3238 11.8262 73.2216 10.6638 73.0333C9.58004 72.8471 8.53012 72.5009 7.54873 72.0059C6.57634 71.5151 5.68944 70.8715 4.922 70.0998C4.14346 69.3372 3.49529 68.4527 3.00318 67.4814C2.50564 66.5037 2.16131 65.4558 1.98219 64.3741C1.78876 63.2118 1.6841 62.0366 1.66913 60.8585C1.65721 60.4631 1.6416 59.1464 1.6416 59.1464V15.8329C1.6416 15.8329 1.65822 14.5365 1.66922 14.1556C1.68356 12.9794 1.78761 11.806 1.98046 10.6455C2.15991 9.56085 2.50451 8.50991 3.00231 7.52906C3.49262 6.5584 4.13719 5.67324 4.91104 4.90791C5.68402 4.1353 6.57376 3.48839 7.54781 2.99077C8.52695 2.49743 9.57488 2.15363 10.6565 1.97089C11.8226 1.7807 13.0014 1.67787 14.1829 1.66327L15.8795 1.64038H209.111L210.828 1.66419C211.999 1.67807 213.167 1.77997 214.323 1.96905C215.415 2.15408 216.474 2.50028 217.464 2.99627C219.416 3.9991 221.004 5.58569 222.005 7.53364C222.495 8.50771 222.834 9.55008 223.012 10.6254C223.207 11.7954 223.316 12.978 223.338 14.1639C223.344 14.6949 223.344 15.2653 223.344 15.8329C223.359 16.536 223.359 17.2053 223.359 17.88V57.1213C223.359 57.8024 223.359 58.4671 223.344 59.1373C223.344 59.747 223.344 60.3056 223.336 60.8804C223.315 62.0451 223.207 63.2067 223.015 64.3558C222.84 65.4452 222.497 66.5013 222 67.487C221.504 68.4478 220.86 69.3246 220.09 70.0852C219.322 70.861 218.434 71.5084 217.459 72.0024C216.471 72.5011 215.414 72.8486 214.323 73.0333C213.16 73.2226 211.986 73.3248 210.808 73.3391C210.257 73.3518 209.681 73.3591 209.121 73.3591L207.083 73.3629L15.8786 73.3591Z" fill="white"/>
<path d="M46.572 38.0634C46.5922 36.4984 47.0091 34.9639 47.7838 33.6027C48.5585 32.2416 49.6659 31.098 51.003 30.2783C50.1536 29.0686 49.033 28.0731 47.7303 27.3708C46.4276 26.6685 44.9787 26.2788 43.4985 26.2326C40.3411 25.9021 37.2801 28.1167 35.6712 28.1167C34.0311 28.1167 31.5538 26.2654 28.8862 26.3201C27.1608 26.3757 25.4792 26.8761 24.0053 27.7724C22.5314 28.6688 21.3154 29.9306 20.476 31.4349C16.8395 37.7132 19.552 46.9402 23.0354 52.015C24.7782 54.5001 26.8151 57.2759 29.4802 57.1775C32.0883 57.0696 33.0623 55.5191 36.2104 55.5191C39.3294 55.5191 40.2432 57.1775 42.9625 57.1149C45.761 57.0696 47.5242 54.6188 49.2059 52.1103C50.4581 50.3396 51.4217 48.3826 52.0609 46.3118C50.4351 45.6261 49.0476 44.4782 48.0715 43.0114C47.0954 41.5446 46.5739 39.8237 46.572 38.0634V38.0634Z" fill="black"/>
<path d="M41.4358 22.8953C42.9617 21.0686 43.7134 18.7208 43.5314 16.3503C41.2002 16.5945 39.0468 17.7056 37.5003 19.4621C36.7442 20.3202 36.1651 21.3186 35.7961 22.4C35.4271 23.4814 35.2754 24.6248 35.3498 25.7647C36.5158 25.7767 37.6694 25.5247 38.7236 25.0276C39.7778 24.5306 40.7051 23.8015 41.4358 22.8953Z" fill="black"/>
<path d="M79.5392 50.8864H70.6392L68.5019 57.1797H64.7322L73.1622 33.896H77.0787L85.5087 57.1797H81.6747L79.5392 50.8864ZM71.561 47.9823H78.6157L75.138 37.7687H75.0406L71.561 47.9823Z" fill="black"/>
<path d="M103.715 48.693C103.715 53.9682 100.883 57.3575 96.6104 57.3575C95.528 57.414 94.4516 57.1653 93.5043 56.6401C92.557 56.1148 91.7772 55.3342 91.2542 54.3875H91.1734V62.7957H87.6791V40.2042H91.0614V43.0277H91.1257C91.6727 42.0856 92.4657 41.3089 93.4202 40.7805C94.3747 40.252 95.455 39.9915 96.5461 40.0266C100.867 40.0266 103.715 43.4323 103.715 48.693ZM100.123 48.693C100.123 45.2561 98.3419 42.9965 95.6243 42.9965C92.9545 42.9965 91.1587 45.3037 91.1587 48.693C91.1587 52.1134 92.9545 54.404 95.6243 54.404C98.3419 54.404 100.123 52.161 100.123 48.693Z" fill="black"/>
<path d="M122.451 48.693C122.451 53.9682 119.62 57.3575 115.347 57.3575C114.265 57.414 113.188 57.1653 112.241 56.6401C111.294 56.1148 110.514 55.3342 109.991 54.3875H109.91V62.7957H106.416V40.2042H109.798V43.0277H109.862C110.409 42.0855 111.202 41.3089 112.157 40.7805C113.111 40.252 114.191 39.9915 115.283 40.0266C119.603 40.0266 122.451 43.4323 122.451 48.693ZM118.86 48.693C118.86 45.2561 117.078 42.9965 114.361 42.9965C111.691 42.9965 109.895 45.3037 109.895 48.693C109.895 52.1134 111.691 54.404 114.361 54.404C117.078 54.404 118.86 52.161 118.86 48.693H118.86Z" fill="black"/>
<path d="M134.834 50.6924C135.093 53.0013 137.343 54.5174 140.416 54.5174C143.362 54.5174 145.481 53.0012 145.481 50.9193C145.481 49.1121 144.203 48.0299 141.177 47.2883L138.151 46.5614C133.863 45.5287 131.873 43.5292 131.873 40.2845C131.873 36.2672 135.383 33.5078 140.369 33.5078C145.303 33.5078 148.685 36.2672 148.799 40.2845H145.271C145.06 37.9609 143.134 36.5584 140.319 36.5584C137.504 36.5584 135.578 37.9774 135.578 40.0429C135.578 41.689 136.808 42.6576 139.818 43.3991L142.39 44.029C147.181 45.1588 149.171 47.0777 149.171 50.4835C149.171 54.8395 145.692 57.5678 140.157 57.5678C134.979 57.5678 131.483 54.9036 131.257 50.6922L134.834 50.6924Z" fill="black"/>
<path d="M156.713 36.187V40.2043H159.95V42.9637H156.713V52.3223C156.713 53.7761 157.361 54.4536 158.784 54.4536C159.168 54.4469 159.552 54.42 159.933 54.373V57.1159C159.294 57.2351 158.643 57.2891 157.993 57.277C154.546 57.277 153.202 55.9861 153.202 52.6939V42.9637H150.727V40.2043H153.202V36.187H156.713Z" fill="black"/>
<path d="M161.825 48.6926C161.825 43.3514 164.979 39.9951 169.899 39.9951C174.834 39.9951 177.974 43.3514 177.974 48.6926C177.974 54.0485 174.851 57.3901 169.899 57.3901C164.948 57.3901 161.825 54.0484 161.825 48.6926ZM174.414 48.6926C174.414 45.0287 172.73 42.8662 169.899 42.8662C167.067 42.8662 165.385 45.0452 165.385 48.6926C165.385 52.3712 167.067 54.5172 169.899 54.5172C172.73 54.5172 174.414 52.3712 174.414 48.6926H174.414Z" fill="black"/>
<path d="M180.855 40.204H184.188V43.0934H184.268C184.494 42.191 185.024 41.3935 185.77 40.835C186.515 40.2764 187.431 39.9909 188.363 40.0264C188.766 40.025 189.167 40.0686 189.56 40.1564V43.4157C189.052 43.2608 188.522 43.1896 187.99 43.2051C187.483 43.1846 186.977 43.2738 186.507 43.4667C186.037 43.6597 185.615 43.9517 185.269 44.3227C184.923 44.6937 184.662 45.135 184.503 45.6163C184.344 46.0976 184.292 46.6074 184.349 47.1107V57.1797H180.855L180.855 40.204Z" fill="black"/>
<path d="M205.671 52.1936C205.201 55.2753 202.192 57.3901 198.341 57.3901C193.389 57.3901 190.315 54.0814 190.315 48.7732C190.315 43.4485 193.405 39.9951 198.194 39.9951C202.904 39.9951 205.866 43.2214 205.866 48.3685V49.5624H193.842V49.7729C193.787 50.3977 193.865 51.0271 194.073 51.6193C194.28 52.2115 194.611 52.7529 195.044 53.2077C195.477 53.6625 196.002 54.0202 196.585 54.257C197.167 54.4938 197.793 54.6044 198.422 54.5813C199.248 54.6584 200.076 54.4677 200.785 54.0375C201.493 53.6073 202.043 52.9606 202.353 52.1936L205.671 52.1936ZM193.859 47.1271H202.37C202.401 46.5653 202.316 46.0032 202.119 45.4759C201.922 44.9487 201.618 44.4676 201.226 44.0631C200.834 43.6585 200.362 43.3391 199.84 43.125C199.319 42.9108 198.758 42.8065 198.194 42.8186C197.625 42.8152 197.061 42.9242 196.535 43.1394C196.008 43.3545 195.529 43.6715 195.126 44.0721C194.723 44.4726 194.404 44.9488 194.186 45.4732C193.969 45.9975 193.857 46.5596 193.859 47.1271V47.1271Z" fill="black"/>
<path d="M71.1232 16.3704C71.8557 16.3179 72.5908 16.4283 73.2755 16.6935C73.9601 16.9587 74.5772 17.3721 75.0822 17.9039C75.5872 18.4357 75.9676 19.0726 76.1958 19.7687C76.4241 20.4649 76.4946 21.2028 76.4022 21.9294C76.4022 25.5037 74.465 27.5582 71.1232 27.5582H67.0707V16.3704H71.1232ZM68.8132 25.976H70.9285C71.452 26.0072 71.9758 25.9216 72.462 25.7254C72.9481 25.5293 73.3842 25.2275 73.7387 24.8421C74.0931 24.4566 74.3568 23.9973 74.5108 23.4973C74.6647 22.9974 74.7049 22.4696 74.6284 21.9522C74.6993 21.4369 74.6551 20.9124 74.4988 20.4161C74.3425 19.9199 74.0781 19.4642 73.7245 19.0819C73.3709 18.6995 72.9368 18.3999 72.4534 18.2044C71.9701 18.009 71.4493 17.9226 70.9285 17.9514H68.8132V25.976Z" fill="black"/>
<path d="M78.3706 23.3329C78.3173 22.778 78.381 22.2182 78.5574 21.6893C78.7339 21.1604 79.0192 20.6742 79.3952 20.2617C79.7711 19.8492 80.2294 19.5197 80.7405 19.2942C81.2517 19.0686 81.8044 18.9521 82.3634 18.9521C82.9223 18.9521 83.4751 19.0686 83.9863 19.2942C84.4974 19.5197 84.9557 19.8492 85.3316 20.2617C85.7075 20.6742 85.9929 21.1604 86.1693 21.6893C86.3458 22.2182 86.4094 22.778 86.3562 23.3329C86.4104 23.8883 86.3475 24.4489 86.1716 24.9786C85.9956 25.5083 85.7104 25.9955 85.3344 26.4088C84.9583 26.822 84.4997 27.1523 83.9881 27.3783C83.4764 27.6043 82.923 27.7211 82.3634 27.7211C81.8038 27.7211 81.2503 27.6043 80.7387 27.3783C80.227 27.1523 79.7684 26.822 79.3924 26.4088C79.0164 25.9955 78.7312 25.5083 78.5552 24.9786C78.3792 24.4489 78.3163 23.8883 78.3706 23.3329V23.3329ZM84.6375 23.3329C84.6375 21.5027 83.813 20.4325 82.3661 20.4325C80.9137 20.4325 80.0967 21.5027 80.0967 23.3329C80.0967 25.1777 80.9138 26.2397 82.3661 26.2397C83.8131 26.2397 84.6375 25.1703 84.6375 23.3329H84.6375Z" fill="black"/>
<path d="M96.9713 27.5582H95.2379L93.488 21.34H93.3558L91.6133 27.5582H89.8964L87.5626 19.1152H89.2574L90.7741 25.5577H90.899L92.6397 19.1152H94.2427L95.9834 25.5577H96.1156L97.625 19.1152H99.2959L96.9713 27.5582Z" fill="black"/>
<path d="M101.259 19.1149H102.867V20.4561H102.992C103.204 19.9744 103.561 19.5706 104.014 19.3009C104.467 19.0313 104.993 18.9093 105.519 18.9519C105.931 18.921 106.344 18.983 106.729 19.1331C107.114 19.2833 107.46 19.5179 107.741 19.8195C108.023 20.1211 108.232 20.4819 108.355 20.8753C108.478 21.2688 108.51 21.6846 108.449 22.0922V27.5578H106.778V22.5106C106.778 21.1538 106.187 20.479 104.951 20.479C104.672 20.466 104.392 20.5135 104.133 20.6182C103.873 20.7229 103.639 20.8823 103.447 21.0855C103.255 21.2887 103.11 21.531 103.02 21.7956C102.931 22.0602 102.9 22.341 102.93 22.6186V27.5579H101.259L101.259 19.1149Z" fill="black"/>
<path d="M111.112 15.8191H112.783V27.558H111.112V15.8191Z" fill="black"/>
<path d="M115.106 23.333C115.052 22.7781 115.116 22.2183 115.293 21.6894C115.469 21.1605 115.754 20.6742 116.13 20.2617C116.506 19.8492 116.965 19.5197 117.476 19.2942C117.987 19.0686 118.54 18.9521 119.099 18.9521C119.658 18.9521 120.211 19.0686 120.722 19.2942C121.233 19.5197 121.691 19.8492 122.067 20.2617C122.443 20.6742 122.729 21.1605 122.905 21.6894C123.082 22.2183 123.145 22.7781 123.092 23.333C123.146 23.8885 123.083 24.4491 122.907 24.9788C122.731 25.5085 122.446 25.9957 122.07 26.4089C121.694 26.8222 121.235 27.1524 120.724 27.3784C120.212 27.6044 119.658 27.7212 119.099 27.7212C118.539 27.7212 117.986 27.6044 117.474 27.3784C116.962 27.1524 116.504 26.8222 116.128 26.4089C115.752 25.9957 115.466 25.5085 115.29 24.9788C115.114 24.4491 115.051 23.8885 115.106 23.333V23.333ZM121.372 23.333C121.372 21.5029 120.548 20.4326 119.101 20.4326C117.649 20.4326 116.832 21.5029 116.832 23.333C116.832 25.1778 117.649 26.2398 119.101 26.2398C120.548 26.2398 121.372 25.1705 121.372 23.333H121.372Z" fill="black"/>
<path d="M124.851 25.1704C124.851 23.6506 125.986 22.7745 128 22.6499L130.294 22.5181V21.7894C130.294 20.8976 129.702 20.3941 128.56 20.3941C127.627 20.3941 126.981 20.7356 126.796 21.3325H125.178C125.349 19.8823 126.717 18.9521 128.637 18.9521C130.76 18.9521 131.957 20.0059 131.957 21.7894V27.5581H130.349V26.3716H130.216C129.948 26.7972 129.571 27.1442 129.124 27.3771C128.678 27.6099 128.177 27.7204 127.673 27.6972C127.318 27.7341 126.959 27.6963 126.619 27.5862C126.279 27.4761 125.966 27.2963 125.7 27.0582C125.434 26.8201 125.221 26.5292 125.075 26.204C124.929 25.8788 124.852 25.5267 124.851 25.1704V25.1704ZM130.294 24.449V23.7431L128.226 23.8749C127.06 23.9527 126.531 24.3482 126.531 25.0926C126.531 25.8524 127.192 26.2946 128.101 26.2946C128.368 26.3215 128.637 26.2947 128.892 26.2158C129.148 26.1369 129.385 26.0075 129.59 25.8353C129.794 25.6631 129.962 25.4516 130.083 25.2134C130.204 24.9753 130.275 24.7153 130.294 24.449V24.449Z" fill="black"/>
<path d="M134.153 23.3329C134.153 20.665 135.529 18.9749 137.668 18.9749C138.197 18.9506 138.722 19.077 139.182 19.3393C139.642 19.6016 140.017 19.989 140.264 20.4562H140.389V15.8191H142.06V27.558H140.459V26.224H140.327C140.06 26.6881 139.672 27.0707 139.203 27.3303C138.735 27.59 138.204 27.7168 137.668 27.6971C135.514 27.6972 134.153 26.0071 134.153 23.3329ZM135.88 23.3329C135.88 25.1236 136.726 26.2012 138.142 26.2012C139.55 26.2012 140.42 25.1081 140.42 23.3402C140.42 21.5805 139.541 20.4718 138.142 20.4718C136.735 20.4718 135.879 21.5567 135.879 23.3329H135.88Z" fill="black"/>
<path d="M148.973 23.3329C148.92 22.778 148.984 22.2182 149.16 21.6893C149.336 21.1604 149.622 20.6742 149.998 20.2617C150.374 19.8492 150.832 19.5197 151.343 19.2942C151.854 19.0686 152.407 18.9521 152.966 18.9521C153.525 18.9521 154.078 19.0686 154.589 19.2942C155.1 19.5197 155.558 19.8492 155.934 20.2617C156.31 20.6742 156.595 21.1604 156.772 21.6893C156.948 22.2182 157.012 22.778 156.959 23.3329C157.013 23.8883 156.95 24.4489 156.774 24.9786C156.598 25.5083 156.313 25.9955 155.937 26.4088C155.561 26.822 155.102 27.1523 154.591 27.3783C154.079 27.6043 153.526 27.7211 152.966 27.7211C152.406 27.7211 151.853 27.6043 151.341 27.3783C150.83 27.1523 150.371 26.822 149.995 26.4088C149.619 25.9955 149.334 25.5083 149.158 24.9786C148.982 24.4489 148.919 23.8883 148.973 23.3329V23.3329ZM155.24 23.3329C155.24 21.5027 154.416 20.4325 152.969 20.4325C151.516 20.4325 150.699 21.5027 150.699 23.3329C150.699 25.1777 151.516 26.2397 152.969 26.2397C154.416 26.2397 155.24 25.1703 155.24 23.3329Z" fill="black"/>
<path d="M159.201 19.1149H160.809V20.4561H160.934C161.146 19.9744 161.503 19.5706 161.956 19.3009C162.409 19.0313 162.935 18.9093 163.461 18.9519C163.873 18.921 164.287 18.983 164.671 19.1331C165.056 19.2833 165.402 19.5179 165.683 19.8195C165.965 20.1211 166.174 20.4819 166.297 20.8753C166.42 21.2688 166.452 21.6846 166.391 22.0922V27.5578H164.721V22.5106C164.721 21.1538 164.129 20.479 162.894 20.479C162.614 20.466 162.335 20.5135 162.075 20.6182C161.815 20.7229 161.582 20.8823 161.39 21.0855C161.198 21.2887 161.052 21.531 160.963 21.7956C160.873 22.0602 160.842 22.341 160.872 22.6186V27.5579H159.201V19.1149Z" fill="black"/>
<path d="M175.833 17.0129V19.1534H177.667V20.557H175.833V24.8984C175.833 25.7828 176.198 26.17 177.03 26.17C177.243 26.1694 177.456 26.1565 177.667 26.1316V27.5195C177.367 27.5731 177.063 27.6015 176.758 27.6047C174.9 27.6047 174.16 26.9528 174.16 25.325V20.5569H172.816V19.1534H174.16V17.0129H175.833Z" fill="black"/>
<path d="M179.95 15.8191H181.606V20.4718H181.738C181.961 19.9856 182.328 19.5795 182.79 19.3088C183.252 19.0382 183.786 18.9161 184.32 18.9594C184.73 18.9371 185.14 19.0054 185.52 19.1592C185.9 19.313 186.242 19.5486 186.52 19.8493C186.799 20.1499 187.007 20.5081 187.131 20.8984C187.255 21.2886 187.291 21.7013 187.236 22.1069V27.558H185.563V22.518C185.563 21.1694 184.933 20.4864 183.753 20.4864C183.466 20.4629 183.177 20.5023 182.906 20.6018C182.636 20.7013 182.391 20.8584 182.188 21.0623C181.985 21.2662 181.829 21.5119 181.731 21.7821C181.633 22.0524 181.595 22.3407 181.621 22.6269V27.558H179.95L179.95 15.8191Z" fill="black"/>
<path d="M196.979 25.2786C196.752 26.0502 196.26 26.7177 195.589 27.1642C194.918 27.6107 194.112 27.8079 193.31 27.7212C192.752 27.7359 192.198 27.6293 191.685 27.409C191.173 27.1886 190.715 26.8597 190.343 26.4451C189.971 26.0304 189.693 25.54 189.53 25.0078C189.367 24.4757 189.322 23.9145 189.399 23.3633C189.324 22.8104 189.37 22.248 189.533 21.7143C189.695 21.1805 189.971 20.6878 190.341 20.2695C190.711 19.8513 191.167 19.5172 191.678 19.2899C192.189 19.0627 192.743 18.9475 193.303 18.9523C195.658 18.9523 197.08 20.5573 197.08 23.2085V23.79H191.101V23.8833C191.075 24.1932 191.114 24.505 191.216 24.7989C191.317 25.0928 191.48 25.3623 191.692 25.59C191.904 25.8178 192.162 25.9987 192.448 26.1214C192.735 26.244 193.044 26.3055 193.356 26.3021C193.755 26.3499 194.16 26.2782 194.519 26.0959C194.878 25.9136 195.174 25.6291 195.37 25.2785L196.979 25.2786ZM191.101 22.5576H195.377C195.398 22.2743 195.36 21.9896 195.264 21.722C195.168 21.4545 195.017 21.2098 194.821 21.0038C194.625 20.7978 194.387 20.6351 194.124 20.526C193.861 20.4169 193.578 20.3639 193.293 20.3704C193.004 20.3668 192.717 20.4209 192.45 20.5296C192.182 20.6382 191.939 20.7992 191.735 21.003C191.53 21.2069 191.369 21.4494 191.26 21.7164C191.151 21.9834 191.097 22.2694 191.101 22.5576H191.101Z" fill="black"/>
</g>
<defs>
<clipPath id="clip0_101_126">
<rect width="225" height="75" fill="white"/>
</clipPath>
</defs>
</svg>
