<svg width="100%" height="32" viewBox="0 0 190 32" fill="none" xmlns="http://www.w3.org/2000/svg">
<path fill-rule="evenodd" clip-rule="evenodd" d="M0 14.8427C0 14.1584 0.554686 13.6038 1.23893 13.6038H167.494C168.178 13.6038 168.732 14.1584 168.732 14.8427C168.732 15.5269 168.178 16.0816 167.494 16.0816H1.23893C0.554686 16.0816 0 15.5269 0 14.8427Z" fill="#318B8B"/>
<path fill-rule="evenodd" clip-rule="evenodd" d="M145.339 0.938736C145.505 0.274925 146.178 -0.128668 146.841 0.0372843C148.409 0.429292 149.974 0.824492 151.536 1.21916C160.032 3.3652 168.466 5.49549 177.055 7.01116C177.452 7.08132 177.993 7.15316 178.654 7.24094C179.272 7.32309 179.995 7.4192 180.804 7.54098C182.398 7.78068 184.219 8.10775 185.72 8.58602C186.467 8.82433 187.194 9.11821 187.79 9.49274C188.363 9.85337 188.983 10.3949 189.224 11.1955C189.488 12.0729 189.201 12.9061 188.682 13.5897C188.183 14.2482 187.399 14.8768 186.378 15.5027C182.31 17.9961 177.777 19.8449 173.253 21.5215C171.985 21.9913 170.722 22.4462 169.469 22.8977C166.211 24.0713 163.019 25.2211 159.984 26.5447C159.838 26.6086 159.509 26.7478 159.049 26.9423C157.784 27.4766 155.533 28.428 153.383 29.378C151.931 30.0197 150.579 30.6374 149.687 31.0897C149.48 31.1944 149.313 31.283 149.182 31.3555C148.971 31.7396 148.563 32 148.095 32C148.013 32 147.751 31.9992 147.473 31.8698C147.315 31.796 147.072 31.6431 146.902 31.3476C146.72 31.0309 146.708 30.7023 146.76 30.4524C146.841 30.0651 147.08 29.8252 147.136 29.7693L147.139 29.766C147.233 29.6717 147.33 29.5966 147.403 29.5441C147.679 29.3446 148.109 29.1114 148.566 28.8797C149.522 28.395 150.926 27.7545 152.382 27.1115C154.559 26.1494 156.976 25.128 158.212 24.6054C158.612 24.4361 158.889 24.3192 158.994 24.2736C162.108 22.915 165.417 21.7231 168.703 20.5395C169.94 20.094 171.173 19.6496 172.392 19.198C176.886 17.5326 181.231 15.7514 185.083 13.3901C185.995 12.8313 186.479 12.3943 186.708 12.0928C186.783 11.9939 186.818 11.9277 186.834 11.8887C186.798 11.8411 186.702 11.7361 186.47 11.59C186.126 11.3735 185.621 11.1552 184.967 10.9469C183.665 10.5318 182.007 10.2277 180.436 9.99126C179.746 9.88755 179.045 9.79354 178.414 9.70889C177.68 9.61057 177.041 9.52488 176.624 9.45131C167.939 7.91857 159.405 5.76271 150.911 3.61686C149.353 3.22332 147.796 2.83012 146.24 2.44116C145.577 2.2752 145.173 1.60255 145.339 0.938736ZM186.846 11.8445C186.847 11.8443 186.847 11.85 186.843 11.8624C186.843 11.851 186.845 11.8448 186.846 11.8445ZM148.845 31.5589C148.845 31.559 148.846 31.5582 148.849 31.5566C148.847 31.5582 148.846 31.5589 148.845 31.5589Z" fill="#318B8B"/>
</svg>
